{
    "prepare_queue": {
        "installed": [],
        "uninstalled": []
    },
    "config_munge": {
        "files": {}
    },
    "installed_plugins": {
        "ionic-plugin-keyboard": {
            "PACKAGE_NAME": "com.ionicframework.myexampleapp658107"
        },
        "cordova-plugin-whitelist": {
            "PACKAGE_NAME": "com.ionicframework.myexampleapp658107"
        },
        "cordova-plugin-console": {
            "PACKAGE_NAME": "com.ionicframework.myexampleapp658107"
        },
        "cordova-plugin-statusbar": {
            "PACKAGE_NAME": "com.ionicframework.myexampleapp658107"
        },
        "cordova-plugin-device": {
            "PACKAGE_NAME": "com.ionicframework.myexampleapp658107"
        },
        "cordova-plugin-splashscreen": {
            "PACKAGE_NAME": "com.ionicframework.myexampleapp658107"
        }
    },
    "dependent_plugins": {}
}